%YAML 1.1
%TAG !u! tag:unity3d.com,2011:
--- !u!114 &11400000
MonoBehaviour:
  m_ObjectHideFlags: 0
  m_CorrespondingSourceObject: {fileID: 0}
  m_PrefabInternal: {fileID: 0}
  m_GameObject: {fileID: 0}
  m_Enabled: 1
  m_EditorHideFlags: 0
  m_Script: {fileID: 11500000, guid: e5a81f9ecfa49574396a28e55ae15342, type: 3}
  m_Name: Enemy_2
  m_EditorClassIdentifier: 
  _speed: 1.5
  _points: 25
  _damage: 25
